…
# View the results
print(core_result)
#> $core_otus
#>  [1] "65_7_12" "65_2_17" "65_7_4"  "59_5_2"  "65_2_5"  "59_7_6"  "59_9_31"
#>  [8] "59_5_19" "59_2_6"  "65_6_2"  "65_3_18" "59_9_17" "59_8_12" "59_4_25"
#> [15] "59_3_21"
#> 
#> $bray_curtis_ranked
#> # A tibble: 44 × 4
#>    rank  MeanBC proportionBC IncreaseBC
#>    <fct>  <dbl>        <dbl>      <dbl>
#>  1 2     0.0985        0.186       1.15
#>  2 3     0.108         0.204       1.1 
#>  3 4     0.117         0.220       1.08
#>  4 5     0.128         0.241       1.10
#>  5 6     0.133         0.251       1.04
#>  6 7     0.169         0.319       1.27
#>  7 8     0.181         0.341       1.07
#>  8 9     0.213         0.402       1.18
#>  9 10    0.351         0.663       1.65
#> 10 11    0.363         0.684       1.03
#> # ℹ 34 more rows
…
